predicted_J_Total_flux_kg_m_2h_1,J_Total_flux_kg_m_2h_1
0.20281598149500787,0.037800000266917044
1.1380067609131335,0.9848999476104975
1.0088677435368298,0.28479998590201133
0.031331551087787374,0.033100001329649235
0.03395083524454385,0.05770000091390684
0.032829540165700014,0.05959999837884679
0.06225935051683336,0.04860000071013346
0.07759413750693202,0.04960000149775296
0.07910050301942975,0.17280000030957163
0.637963926012814,0.49499999093115327
0.6139167307958007,2.1782000969290736
0.4846842110790312,0.05350000053793191
0.4846842110790312,0.05479999899631366
0.4846842110790312,0.0549999998868443
0.08720472821947188,0.0570999982423149
0.08720472821947188,0.0687999990278855
0.3286701464220881,0.1323999963440001
0.48791770907565946,0.20000000414066016
0.4819822309337556,0.28760001302957533
0.20560564390718936,0.2963000114522874
0.1978184001442045,1.0064999558269976
0.49872372383922337,0.07530000231489539
0.49900766133219,0.0999999986793846
0.14713117426931857,0.257999998512119
0.1507554381620139,0.48499999038502567
0.15176022914871573,0.03599999958220869
0.48285398119613526,0.2870000030279159
0.40933211452290413,0.06800000279583038
0.4264698708750307,0.17009999928250907
0.42191678481474515,0.10700000052768738
0.4373009544692933,0.12099999689422548
0.43181894362047313,0.13099999744035304
0.44747438441142434,0.1569999959282577
0.1753103285111487,0.053099998756870624
0.4830555873714387,0.06460000231694431
0.20382389509044588,0.10790000087004155
0.20439238580204547,0.12739999607093633
0.2050709594666958,0.1659000025715679
0.4017518278844654,0.2971999971345067
0.4050043840564787,0.060000000159908085
0.3972769096635282,0.4360000140972435
0.07371701560728253,0.008499999912874772
0.07611443144977093,0.015200000425381584
0.8465177738130093,0.32700000521242617
0.8464285815522075,0.41590000156462187
0.8391573305577039,0.2388000009819865
0.8318401053801179,0.10619999696556479
0.8317616443380713,0.21809999310784042
0.823748942360282,0.0630000025227666
0.8463487131372094,1.9999999411821363
1.1646598244309423,1.0646551863670348
1.1631966256856916,1.258358610704541
1.212572429192066,1.9574468471825122
1.1573772558122872,1.98922415561676
1.1390210076868532,0.38265855613648886
1.3095487525075673,2.2098446431815626
1.243600546091795,0.6926828795701265
0.4049984320417046,0.41951985275670883
0.41625990787670014,0.43272675781473513
0.4539357509128749,0.30374999881163234
0.5108093631386756,0.6300000129640102
1.034994566851854,0.4973822042137384
1.057413314282894,0.6413612656772136
1.0250840810894966,0.7329842941284179
1.0195814874112605,0.3684210435941815
1.0161487875014543,0.3894736716933548
1.006589558571577,0.5473683970972896
0.8793486768230796,0.5999999820053578
0.8664220735445618,0.9052631627440453
0.48863500015661115,0.36168224869966503
0.49166542596444485,0.38271027709245675
0.49945461952537296,0.4836448661543428
0.5051913062378764,0.597196260523796
2.2572327669560908,1.3720929928779602
2.377878640413284,2.2736842530727386
2.377878640413284,2.3023254654467107
2.318603375566006,2.526315672981739
2.526631862771511,3.7209301913559436
2.6002775782644747,3.9999998158454892
1.826659326955676,0.07113702244460583
1.9759570853650568,0.13177842128388584
2.2681802520215513,0.3545189549386501
2.1229149689614775,0.41489361262321467
1.875676719483733,1.398809505459666
0.015746328678028658,0.012720587699557653
0.016007869149884207,0.01617647169646807
0.4802583163492381,0.44923075653463596
0.5564361010238529,1.1255662877082824
0.1652965474382043,0.17959183557219804
0.1475360432151705,0.22199999947808682
3.6782384711205958,0.9499999717995524
0.508412665642798,0.7999999929279089
0.5089959044501186,0.20000000414066016
0.5084412822261453,0.21000000468678773
0.5090055214986206,0.27999999384954566
0.07260286001414061,0.06172897249097004
0.014536376433307303,0.0041286860106803935
0.016630023285327478,0.025522787821991366
0.17413753237836063,0.048999998826161024
0.1812415405537933,0.1740000056527555
0.1694266739461571,0.22899999399632215
0.0004970835751388221,0.004000000033620744
0.7685887187421322,0.8041000221788883
0.9364637414708733,0.9289999735847115
1.3353509417951106,0.9353000199615955
1.2569898232281207,1.3387999437749385
2.1688037714183332,2.7157999104917048
3.3714590805888176,0.8294999960049987
3.4740122365057466,2.6556999250948428
3.475399437111616,2.4590000864624977
0.6651427606090903,0.09670000231079758
0.16025356364957988,0.15040000319108368
0.16235931610800325,0.2589000135146081
0.9013113181367517,0.6253333401784301
